Risk profile plot — riskProfile • stats4phc
…
p1$data
#> # A tibble: 3,006 × 7
#>    method   score percentile outcome estimate pv    pvValue
#>    <chr>    <dbl>      <dbl>   <dbl>    <dbl> <chr>   <dbl>
#>  1 asis   NA         0            NA   0.0640 PC         NA
#>  2 asis    0.0640    0.00300       0   0.0640 PC         NA
#>  3 asis    0.0654    0.00601       0   0.0654 PC         NA
#>  4 asis    0.0659    0.00901       1   0.0659 PC         NA
#>  5 asis    0.0702    0.0120        0   0.0702 PC         NA
#>  6 asis    0.0709    0.0150        0   0.0709 PC         NA
#>  7 asis    0.0721    0.0180        1   0.0721 PC         NA
#>  8 asis    0.0753    0.0210        0   0.0753 PC         NA
#>  9 asis    0.0764    0.0240        0   0.0764 PC         NA
#> 10 asis    0.0770    0.0270        0   0.0770 PC         NA
#> # ℹ 2,996 more rows
…
p2$data
#> # A tibble: 3,340 × 7
#>    method   score percentile outcome estimate pv    pvValue
#>    <chr>    <dbl>      <dbl>   <dbl>    <dbl> <chr>   <dbl>
#>  1 asis   NA         0            NA   0.0640 PC         NA
#>  2 asis    0.0640    0.00300       0   0.0640 PC         NA
#>  3 asis    0.0654    0.00601       0   0.0654 PC         NA
#>  4 asis    0.0659    0.00901       1   0.0659 PC         NA
#>  5 asis    0.0702    0.0120        0   0.0702 PC         NA
#>  6 asis    0.0709    0.0150        0   0.0709 PC         NA
#>  7 asis    0.0721    0.0180        1   0.0721 PC         NA
#>  8 asis    0.0753    0.0210        0   0.0753 PC         NA
#>  9 asis    0.0764    0.0240        0   0.0764 PC         NA
#> 10 asis    0.0770    0.0270        0   0.0770 PC         NA
#> # ℹ 3,330 more rows
…
